results.vcd
$date
  Fri Dec 15 20:02:33 2017
$end
$version
  GHDL v0
$end
$timescale
  1 fs
$end
$var reg 1 ! c_rw $end
$var reg 8 " c_adr[7:0] $end
$var reg 8 # c_dato[7:0] $end
$var reg 8 $ c_dati[7:0] $end
$var reg 8 % a_dat[7:0] $end
$var reg 8 & o_dat[7:0] $end
$var reg 1 ' t_w $end
$var reg 1 ( l_clk $end
$var reg 1 ) l_rst $end
$scope module cpu_mod $end
$var reg 1 * i_clk $end
$var reg 1 + i_rst $end
$var reg 8 , i_dat[7:0] $end
$var reg 8 - q_adr[7:0] $end
$var reg 8 . q_dat[7:0] $end
$var reg 1 / q_rw $end
$var reg 8 0 l_creg[7:0] $end
$var reg 8 1 r_out[7:0] $end
$var reg 1 2 f_fc $end
$var reg 8 3 f_a[7:0] $end
$var reg 8 4 f_b[7:0] $end
$var reg 8 5 f_out[7:0] $end
$var reg 8 6 c_imm[7:0] $end
$var reg 16 7 l_ir[15:0] $end
$var reg 8 8 l_busx[7:0] $end
$var reg 8 9 l_busy[7:0] $end
$var reg 8 : l_pc[7:0] $end
$var reg 17 ; l_cs[16:0] $end
$var reg 1 < l_lcka $end
$var reg 1 = l_lckb $end
$var reg 1 > l_lckc $end
$var reg 1 ? l_rbus $end
$var reg 1 @ l_busr $end
$scope module reg_a $end
$var reg 1 A i_clk $end
$var reg 8 B i_d[7:0] $end
$var reg 1 C i_w $end
$var reg 8 D q_d[7:0] $end
$var reg 8 E l_content[7:0] $end
$upscope $end
$scope module reg_b $end
$var reg 1 F i_clk $end
$var reg 8 G i_d[7:0] $end
$var reg 1 H i_w $end
$var reg 8 I q_d[7:0] $end
$var reg 8 J l_content[7:0] $end
$upscope $end
$scope module reg_c $end
$var reg 1 K i_clk $end
$var reg 8 L i_d[7:0] $end
$var reg 1 M i_w $end
$var reg 8 N q_d[7:0] $end
$var reg 8 O l_content[7:0] $end
$upscope $end
$scope module rf $end
$var reg 1 P i_clk $end
$var reg 1 Q i_we $end
$var reg 1 R i_oe $end
$var reg 4 S i_reg[3:0] $end
$var reg 8 T i_in[7:0] $end
$var reg 8 U q_out[7:0] $end
$comment regs is not handled $end
$var reg 8 V l_out[7:0] $end
$upscope $end
$scope module fu $end
$var reg 1 W i_clk $end
$var reg 8 X i_a[7:0] $end
$var reg 8 Y i_b[7:0] $end
$var reg 1 Z i_fc $end
$var reg 8 [ q_out[7:0] $end
$var reg 8 \ l_out[7:0] $end
$upscope $end
$scope module cu $end
$var reg 1 ] i_clk $end
$var reg 1 ^ i_rst $end
$var reg 16 _ i_ir[15:0] $end
$var reg 17 ` q_cs[16:0] $end
$var reg 8 a q_imm[7:0] $end
$var reg 1 b c_inc $end
$var reg 1 c c_rst $end
$var reg 8 d c_cycle[7:0] $end
$var reg 16 e d_type[15:0] $end
$var reg 1 f l_lir $end
$var reg 16 g l_ir[15:0] $end
$var reg 17 h l_cs[16:0] $end
$scope module cg $end
$var reg 1 i i_clk $end
$var reg 1 j i_inc $end
$var reg 1 k i_rst $end
$var reg 8 l q_cycle[7:0] $end
$var reg 8 m l_cycle[7:0] $end
$upscope $end
$scope module itd $end
$var reg 4 n i_opc[3:0] $end
$var reg 16 o q_type[15:0] $end
$upscope $end
$scope module ir $end
$var reg 1 p i_clk $end
$var reg 16 q i_d[15:0] $end
$var reg 1 r i_w $end
$var reg 16 s q_d[15:0] $end
$var reg 16 t l_content[15:0] $end
$upscope $end
$upscope $end
$upscope $end
$scope module ram_mod $end
$var reg 1 u i_clk $end
$var reg 1 v i_rw $end
$var reg 7 w i_adr[6:0] $end
$var reg 8 x i_dat[7:0] $end
$var reg 8 y q_dat[7:0] $end
$comment ram is not handled $end
$upscope $end
$scope module rom_mod $end
$var reg 1 z i_clk $end
$var reg 6 { i_adr[5:0] $end
$var reg 8 | q_dat[7:0] $end
$comment rom is not handled $end
$upscope $end
$scope module tty_mod $end
$var reg 1 } i_clk $end
$var reg 1 !" i_w $end
$var reg 8 "" i_dat[7:0] $end
$upscope $end
$enddefinitions $end
#0
0!
b00000000 "
b00000000 #
b00000000 $
b00000000 %
b01000000 &
0'
1(
1)
1*
1+
b00000000 ,
b00000000 -
b00000000 .
0/
b00000000 0
bZZZZZZZZ 1
02
b00000000 3
b00000000 4
b00000000 5
b00000000 6
b0000000000000000 7
bZZZZZZZZ 8
b00000000 9
b11000000 :
b00000000000000000 ;
0<
0=
0>
0?
0@
1A
bZZZZZZZZ B
0C
b00000000 D
b00000000 E
1F
bZZZZZZZZ G
0H
b00000000 I
b00000000 J
1K
b00000000 L
0M
b00000000 N
b00000000 O
1P
0Q
0R
b0000 S
b00000000 T
bZZZZZZZZ U
b00000000 V
1W
b00000000 X
b00000000 Y
0Z
b00000000 [
b00000000 \
1]
1^
b0000000000000000 _
b00000000000000000 `
b00000000 a
1b
1c
b00000001 d
b0000000000000001 e
0f
b0000000000000000 g
b00001011000000000 h
1i
1j
1k
b00000001 l
b00000001 m
b0000 n
b0000000000000001 o
1p
b0000000000000000 q
0r
b0000000000000000 s
b0000000000000000 t
1u
0v
b0000000 w
b00000000 x
b00000000 y
1z
b000000 {
b01000000 |
1}
0!"
b00000000 ""
#10000000
0(
0*
0A
0F
0K
0P
0W
0]
0i
0p
0u
0z
0}
#20000000
b11000000 "
b01000000 $
1(
0)
1*
0+
b01000000 ,
b11000000 -
b00001011000000000 ;
1A
1F
1K
1P
1W
1]
0^
b00001011000000000 `
0c
0f
1i
0k
1p
0r
1u
b1000000 w
1z
1}
#30000000
0(
0*
0A
0F
0K
0P
0W
0]
0i
0p
0u
0z
0}
#40000000
b11000001 "
b11001110 $
b11001110 &
1(
1*
b11001110 ,
b11000001 -
b0100000000000000 7
b11000001 :
b00000111000000000 ;
1A
1F
1K
1P
1W
1]
b0100000000000000 _
b00000111000000000 `
b00000010 d
b00000111000000000 h
1i
b00000010 l
b00000010 m
1p
b0100000000000000 q
1u
b1000001 w
1z
b000001 {
b11001110 |
1}
#50000000
0(
0*
0A
0F
0K
0P
0W
0]
0i
0p
0u
0z
0}
#60000000
b00000000 "
b00000000 $
b01000000 &
1(
1*
b00000000 ,
b00000000 -
b0100000011001110 7
b11000010 :
b00000000000000000 ;
1A
1F
1K
1P
1W
1]
b0100000011001110 _
b00000000000000000 `
1c
b00000100 d
1f
b00000000000000000 h
1i
1k
b00000100 l
b00000100 m
1p
b0100000011001110 q
1r
1u
b0000000 w
1z
b000000 {
b01000000 |
1}
#70000000
0(
0*
0A
0F
0K
0P
0W
0]
0i
0p
0u
0z
0}
#80000000
b11000010 "
b01000001 $
b01000001 &
1(
1*
b01000001 ,
b11000010 -
b01000001 0
b11001110 6
b11001110 8
b00001011001000100 ;
1<
1A
b11001110 B
1C
1F
b11001110 G
1K
b01000001 L
1P
1W
1]
b00001011001000100 `
b11001110 a
0c
b00000001 d
b0000000000010000 e
0f
b0100000011001110 g
b00001011001000100 h
1i
0k
b00000001 l
b00000001 m
b0100 n
b0000000000010000 o
1p
0r
b0100000011001110 s
b0100000011001110 t
1u
b1000010 w
1z
b000010 {
b01000001 |
1}
#90000000
0(
0*
0A
0F
0K
0P
0W
0]
0i
0p
0u
0z
0}
#100000000
b11000011 "
b10000000 $
b10000000 &
1(
1*
b10000000 ,
b11000011 -
b11001110 0
b11001110 3
b11001110 5
b0100000111001110 7
bZZZZZZZZ 8
b11000011 :
b00000111000010000 ;
0<
1>
1A
bZZZZZZZZ B
0C
b11001110 D
b11001110 E
1F
bZZZZZZZZ G
1K
b11001110 L
1M
1P
1W
b11001110 X
b11001110 [
b11001110 \
1]
b0100000111001110 _
b00000111000010000 `
b00000010 d
b00000111000010000 h
1i
b00000010 l
b00000010 m
1p
b0100000111001110 q
1u
b1000011 w
1z
b000011 {
b10000000 |
1}
#110000000
0(
0*
0A
0F
0K
0P
0W
0]
0i
0p
0u
0z
0}
#120000000
b11001110 "
b01000001 $
b01000001 &
1(
1*
b01000001 ,
b11001110 -
b0100000110000000 7
b11001110 9
b11000100 :
b00000000000000010 ;
0>
1@
1A
1F
1K
0M
b11001110 N
b11001110 O
1P
1Q
b11001110 T
1W
1]
b0100000110000000 _
b00000000000000010 `
1c
b00000100 d
1f
b00000000000000010 h
1i
1k
b00000100 l
b00000100 m
1p
b0100000110000000 q
1r
1u
b1001110 w
1z
b001110 {
b01000001 |
1}
#130000000
0(
0*
0A
0F
0K
0P
0W
0]
0i
0p
0u
0z
0}
#140000000
b11000100 "
b00100010 $
b00100010 &
1(
1*
b00100010 ,
b11000100 -
b00100010 0
b10000000 6
b10000000 8
b00001011001000100 ;
1<
0@
1A
b10000000 B
1C
1F
b10000000 G
1K
b00100010 L
1P
0Q
b11001110 V
1W
1]
b00001011001000100 `
b10000000 a
0c
b00000001 d
0f
b0100000110000000 g
b00001011001000100 h
1i
0k
b00000001 l
b00000001 m
1p
0r
b0100000110000000 s
b0100000110000000 t
1u
b1000100 w
1z
b000100 {
b00100010 |
1}
#150000000
0(
0*
0A
0F
0K
0P
0W
0]
0i
0p
0u
0z
0}
#160000000
b11000101 "
b00000000 $
b00000000 &
1(
1*
b00000000 ,
b11000101 -
b10000000 0
b10000000 3
b10000000 5
b0010001010000000 7
bZZZZZZZZ 8
b11000101 :
b00000111000010000 ;
0<
1>
1A
bZZZZZZZZ B
0C
b10000000 D
b10000000 E
1F
bZZZZZZZZ G
1K
b10000000 L
1M
1P
1W
b10000000 X
b10000000 [
b10000000 \
1]
b0010001010000000 _
b00000111000010000 `
b00000010 d
b00000111000010000 h
1i
b00000010 l
b00000010 m
1p
b0010001010000000 q
1u
b1000101 w
1z
b000101 {
b00000000 |
1}
#170000000
0(
0*
0A
0F
0K
0P
0W
0]
0i
0p
0u
0z
0}
#180000000
b10000000 "
b00000000 $
b01000000 &
1(
1*
b00000000 ,
b10000000 -
b0010001000000000 7
b10000000 9
b11000110 :
b00010000000000010 ;
0>
1@
1A
1F
1K
0M
b10000000 N
b10000000 O
1P
1Q
b0001 S
b10000000 T
b00000000 V
1W
1]
b0010001000000000 _
b00010000000000010 `
1c
b00000100 d
1f
b00010000000000010 h
1i
1k
b00000100 l
b00000100 m
1p
b0010001000000000 q
1r
1u
b0000000 w
1z
b000000 {
b01000000 |
1}
#190000000
0(
0*
0A
0F
0K
0P
0W
0]
0i
0p
0u
0z
0}
#200000000
b11000110 "
b01000011 $
b01000011 &
1(
1*
b01000011 ,
b11000110 -
b10000000 0
b11001110 1
b00000000 6
b11001110 8
b00001011000000101 ;
1<
1?
0@
1A
b11001110 B
1C
1F
b11001110 G
1K
b10000000 L
1P
0Q
1R
b0000 S
b11001110 U
b11001110 V
1W
1]
b00001011000000101 `
b00000000 a
0c
b00000001 d
b0000000000000100 e
0f
b0010001000000000 g
b00001011000000101 h
1i
0k
b00000001 l
b00000001 m
b0010 n
b0000000000000100 o
1p
0r
b0010001000000000 s
b0010001000000000 t
1u
b1000110 w
1z
b000110 {
b01000011 |
1}
#210000000
0(
0*
0A
0F
0K
0P
0W
0]
0i
0p
0u
0z
0}
#220000000
b11001110 "
b01000001 $
b01000001 &
1(
1*
b01000001 ,
b11001110 -
b01000001 0
bZZZZZZZZ 1
b11001110 3
b11001110 5
b0100001100000000 7
b00000000 8
b11000111 :
b00000000011010000 ;
0<
1>
0?
1A
b00000000 B
0C
b11001110 D
b11001110 E
1F
b00000000 G
1K
b01000001 L
1M
1P
0R
bZZZZZZZZ U
1W
b11001110 X
b11001110 [
b11001110 \
1]
b0100001100000000 _
b00000000011010000 `
b00000010 d
b00000000011010000 h
1i
b00000010 l
b00000010 m
1p
b0100001100000000 q
1u
b1001110 w
1z
b001110 {
b01000001 |
1}
#230000000
0(
0*
0A
0F
0K
0P
0W
0]
0i
0p
0u
0z
0}
#240000000
b11000111 "
b00000001 $
b00000001 &
1(
1*
b00000001 ,
b11000111 -
b11001110 0
bZZZZZZZZ 8
b01000001 9
b00100111000000010 ;
0>
1@
1A
bZZZZZZZZ B
1F
bZZZZZZZZ G
1K
b11001110 L
0M
b01000001 N
b01000001 O
1P
1Q
b0010 S
b01000001 T
b00000000 V
1W
1]
b00100111000000010 `
b00000100 d
b00100111000000010 h
1i
b00000100 l
b00000100 m
1p
1u
b1000111 w
1z
b000111 {
b00000001 |
1}
#250000000
0(
0*
0A
0F
0K
0P
0W
0]
0i
0p
0u
0z
0}
#260000000
b11001110 "
b01000001 $
b01000001 &
1(
1*
b01000001 ,
b11001110 -
b0100001100000001 7
b11001000 :
b00000000000000000 ;
0@
1A
1F
1K
1P
0Q
b0000 S
b11001110 V
1W
1]
b0100001100000001 _
b00000000000000000 `
1c
b00001000 d
1f
b00000000000000000 h
1i
1k
b00001000 l
b00001000 m
1p
b0100001100000001 q
1r
1u
b1001110 w
1z
b001110 {
b01000001 |
1}
#270000000
0(
0*
0A
0F
0K
0P
0W
0]
0i
0p
0u
0z
0}
#280000000
b11001000 "
b01010010 $
b01010010 &
1(
1*
b01010010 ,
b11001000 -
b01010010 0
bZZZZZZZZ 1
b00000001 6
b00000001 8
b00001011001000100 ;
1<
0?
1A
b00000001 B
1C
1F
b00000001 G
1K
b01010010 L
1P
0R
bZZZZZZZZ U
1W
1]
b00001011001000100 `
b00000001 a
0c
b00000001 d
b0000000000010000 e
0f
b0100001100000001 g
b00001011001000100 h
1i
0k
b00000001 l
b00000001 m
b0100 n
b0000000000010000 o
1p
0r
b0100001100000001 s
b0100001100000001 t
1u
b1001000 w
1z
b001000 {
b01010010 |
1}
#290000000
0(
0*
0A
0F
0K
0P
0W
0]
0i
0p
0u
0z
0}
#300000000
b11001001 "
b00100011 $
b00100011 &
1(
1*
b00100011 ,
b11001001 -
b00000001 0
b00000001 3
b00000001 5
b0101001000000001 7
bZZZZZZZZ 8
b11001001 :
b00000111000010000 ;
0<
1>
1A
bZZZZZZZZ B
0C
b00000001 D
b00000001 E
1F
bZZZZZZZZ G
1K
b00000001 L
1M
1P
1W
b00000001 X
b00000001 [
b00000001 \
1]
b0101001000000001 _
b00000111000010000 `
b00000010 d
b00000111000010000 h
1i
b00000010 l
b00000010 m
1p
b0101001000000001 q
1u
b1001001 w
1z
b001001 {
b00100011 |
1}
#310000000
0(
0*
0A
0F
0K
0P
0W
0]
0i
0p
0u
0z
0}
#320000000
b00000001 "
b00000000 $
b11001110 &
1(
1*
b00000000 ,
b00000001 -
b0101001000100011 7
b00000001 9
b11001010 :
b00110000000000010 ;
0>
1@
1A
1F
1K
0M
b00000001 N
b00000001 O
1P
1Q
b0011 S
b00000001 T
b00000000 V
1W
1]
b0101001000100011 _
b00110000000000010 `
1c
b00000100 d
1f
b00110000000000010 h
1i
1k
b00000100 l
b00000100 m
1p
b0101001000100011 q
1r
1u
b0000001 w
1z
b000001 {
b11001110 |
1}
#330000000
0(
0*
0A
0F
0K
0P
0W
0]
0i
0p
0u
0z
0}
#340000000
b11001010 "
b00110001 $
b00110001 &
1(
1*
b00110001 ,
b11001010 -
b00000001 0
b01000001 1
b00100011 6
b01000001 8
b00101011000000101 ;
1<
1?
0@
1A
b01000001 B
1C
1F
b01000001 G
1K
b00000001 L
1P
0Q
1R
b0010 S
b01000001 U
b01000001 V
1W
1]
b00101011000000101 `
b00100011 a
0c
b00000001 d
b0000000000100000 e
0f
b0101001000100011 g
b00101011000000101 h
1i
0k
b00000001 l
b00000001 m
b0101 n
b0000000000100000 o
1p
0r
b0101001000100011 s
b0101001000100011 t
1u
b1001010 w
1z
b001010 {
b00110001 |
1}
#350000000
0(
0*
0A
0F
0K
0P
0W
0]
0i
0p
0u
0z
0}
#360000000
b11001011 "
b00100000 $
b00100000 &
1(
1*
b00100000 ,
b11001011 -
b01000001 0
b00000001 1
b01000001 3
b01000001 5
b0011000100100011 7
b00000001 8
b11001011 :
b00110111000001001 ;
0<
1=
1A
b00000001 B
0C
b01000001 D
b01000001 E
1F
b00000001 G
1H
1K
b01000001 L
1P
b0011 S
b00000001 U
b00000001 V
1W
b01000001 X
b01000001 [
b01000001 \
1]
b0011000100100011 _
b00110111000001001 `
b00000010 d
b00110111000001001 h
1i
b00000010 l
b00000010 m
1p
b0011000100100011 q
1u
b1001011 w
1z
b001011 {
b00100000 |
1}
#370000000
0(
0*
0A
0F
0K
0P
0W
0]
0i
0p
0u
0z
0}
#380000000
b01000001 "
b00000001 #
b00000000 $
b11001110 &
1(
1*
b00000000 ,
b01000001 -
b00000001 .
b01000010 0
bZZZZZZZZ 1
12
b00000001 4
b01000010 5
b0011000100100000 7
bZZZZZZZZ 8
b11001100 :
b00000000000110000 ;
0=
1>
0?
1A
bZZZZZZZZ B
1F
bZZZZZZZZ G
0H
b00000001 I
b00000001 J
1K
b01000010 L
1M
1P
0R
b0000 S
bZZZZZZZZ U
b11001110 V
1W
b00000001 Y
1Z
b01000010 [
b01000010 \
1]
b0011000100100000 _
b00000000000110000 `
b00000100 d
b00000000000110000 h
1i
b00000100 l
b00000100 m
1p
b0011000100100000 q
1u
b1000001 w
b00000001 x
1z
b000001 {
b11001110 |
1}
b00000001 ""
#390000000
0(
0*
0A
0F
0K
0P
0W
0]
0i
0p
0u
0z
0}
#400000000
1(
1*
b01000001 0
02
b01000001 5
b01000010 9
b00100000000000010 ;
0>
1@
1A
1F
1K
b01000001 L
0M
b01000010 N
b01000010 O
1P
1Q
b0010 S
b01000010 T
b01000001 V
1W
0Z
b01000001 [
b01000001 \
1]
b00100000000000010 `
1c
b00001000 d
1f
b00100000000000010 h
1i
1k
b00001000 l
b00001000 m
1p
1r
1u
1z
1}
#410000000
0(
0*
0A
0F
0K
0P
0W
0]
0i
0p
0u
0z
0}
#420000000
b11001100 "
b00010000 $
b00010000 &
1(
1*
b00010000 ,
b11001100 -
b10000000 1
b00100000 6
b10000000 8
b00011011000000101 ;
1<
1?
0@
1A
b10000000 B
1C
1F
b10000000 G
1K
1P
0Q
1R
b0001 S
b10000000 U
b10000000 V
1W
1]
b00011011000000101 `
b00100000 a
0c
b00000001 d
b0000000000001000 e
0f
b0011000100100000 g
b00011011000000101 h
1i
0k
b00000001 l
b00000001 m
b0011 n
b0000000000001000 o
1p
0r
b0011000100100000 s
b0011000100100000 t
1u
b1001100 w
1z
b001100 {
b00010000 |
1}
#430000000
0(
0*
0A
0F
0K
0P
0W
0]
0i
0p
0u
0z
0}
#440000000
b11001101 "
b00000000 $
b00000000 &
1(
1*
b00000000 ,
b11001101 -
b10000000 0
b01000010 1
b10000000 3
b10000000 5
b0001000000100000 7
b01000010 8
b11001101 :
b00100111000001001 ;
0<
1=
1A
b01000010 B
0C
b10000000 D
b10000000 E
1F
b01000010 G
1H
1K
b10000000 L
1P
b0010 S
b01000010 U
b01000010 V
1W
b10000000 X
b10000000 [
b10000000 \
1]
b0001000000100000 _
b00100111000001001 `
b00000010 d
b00100111000001001 h
1i
b00000010 l
b00000010 m
1p
b0001000000100000 q
1u
b1001101 w
1z
b001101 {
b00000000 |
1}
#450000000
0(
0*
0A
0F
0K
0P
0W
0]
0i
0p
0u
0z
0}
#460000000
1!
b10000000 "
b01000010 #
b00000000 $
b01000000 &
1'
1(
1*
b00000000 ,
b10000000 -
b01000010 .
1/
bZZZZZZZZ 1
b01000010 4
b0001000000000000 7
bZZZZZZZZ 8
b11001110 :
b00000000100000000 ;
0=
0?
1A
bZZZZZZZZ B
1F
bZZZZZZZZ G
0H
b01000010 I
b01000010 J
1K
1P
0R
b0000 S
bZZZZZZZZ U
b11001110 V
1W
b01000010 Y
1]
b0001000000000000 _
b00000000100000000 `
1c
b00000100 d
1f
b00000000100000000 h
1i
1k
b00000100 l
b00000100 m
1p
b0001000000000000 q
1r
1u
1v
b0000000 w
b01000010 x
1z
b000000 {
b01000000 |
1}
1!"
b01000010 ""
#470000000
b01000010 %
0(
0*
0A
0F
0K
0P
0W
0]
0i
0p
0u
b01000010 y
0z
0}
#480000000
0!
0'
1(
1*
0/
b00000000 6
b00000000000000000 ;
1A
1F
1K
1P
1W
1]
b00000000000000000 `
b00000000 a
1c
b00000001 d
b0000000000000010 e
0f
b0001000000000000 g
b00001011000000000 h
1i
1k
b00000001 l
b00000001 m
b0001 n
b0000000000000010 o
1p
0r
b0001000000000000 s
b0001000000000000 t
1u
0v
1z
1}
0!"
