results.vcd
$date
  Fri Jan  5 12:45:41 2018
$end
$version
  GHDL v0
$end
$timescale
  1 fs
$end
$var reg 1 ! c_rw $end
$var reg 8 " c_adr[7:0] $end
$var reg 8 # c_dato[7:0] $end
$var reg 8 $ c_dati[7:0] $end
$var reg 1 % a_rw $end
$var reg 8 & a_dat[7:0] $end
$var reg 8 ' o_dat[7:0] $end
$var reg 1 ( t_w $end
$var reg 1 ) l_clk $end
$var reg 1 * l_rst $end
$scope module cpu_mod $end
$var reg 1 + i_clk $end
$var reg 1 , i_rst $end
$var reg 8 - i_dat[7:0] $end
$var reg 8 . q_adr[7:0] $end
$var reg 8 / q_dat[7:0] $end
$var reg 1 0 q_rw $end
$var reg 8 1 l_creg[7:0] $end
$var reg 8 2 r_out[7:0] $end
$var reg 1 3 f_fc $end
$var reg 8 4 f_a[7:0] $end
$var reg 8 5 f_b[7:0] $end
$var reg 8 6 f_out[7:0] $end
$var reg 8 7 c_imm[7:0] $end
$var reg 16 8 l_ir[15:0] $end
$var reg 8 9 l_busx[7:0] $end
$var reg 8 : l_busy[7:0] $end
$var reg 8 ; l_pc[7:0] $end
$var reg 17 < l_cs[16:0] $end
$var reg 1 = l_lcka $end
$var reg 1 > l_lckb $end
$var reg 1 ? l_lckc $end
$var reg 1 @ l_rbus $end
$var reg 1 A l_busr $end
$scope module reg_a $end
$var reg 1 B i_clk $end
$var reg 8 C i_d[7:0] $end
$var reg 1 D i_w $end
$var reg 8 E q_d[7:0] $end
$var reg 8 F l_content[7:0] $end
$upscope $end
$scope module reg_b $end
$var reg 1 G i_clk $end
$var reg 8 H i_d[7:0] $end
$var reg 1 I i_w $end
$var reg 8 J q_d[7:0] $end
$var reg 8 K l_content[7:0] $end
$upscope $end
$scope module reg_c $end
$var reg 1 L i_clk $end
$var reg 8 M i_d[7:0] $end
$var reg 1 N i_w $end
$var reg 8 O q_d[7:0] $end
$var reg 8 P l_content[7:0] $end
$upscope $end
$scope module rf $end
$var reg 1 Q i_clk $end
$var reg 1 R i_we $end
$var reg 1 S i_oe $end
$var reg 4 T i_reg[3:0] $end
$var reg 8 U i_in[7:0] $end
$var reg 8 V q_out[7:0] $end
$comment regs is not handled $end
$var reg 8 W l_out[7:0] $end
$upscope $end
$scope module fu $end
$var reg 1 X i_clk $end
$var reg 8 Y i_a[7:0] $end
$var reg 8 Z i_b[7:0] $end
$var reg 1 [ i_fc $end
$var reg 8 \ q_out[7:0] $end
$var reg 8 ] l_out[7:0] $end
$upscope $end
$scope module cu $end
$var reg 1 ^ i_clk $end
$var reg 1 _ i_rst $end
$var reg 16 ` i_ir[15:0] $end
$var reg 17 a q_cs[16:0] $end
$var reg 8 b q_imm[7:0] $end
$var reg 1 c c_inc $end
$var reg 1 d c_rst $end
$var reg 8 e c_cycle[7:0] $end
$var reg 16 f d_type[15:0] $end
$var reg 1 g l_lir $end
$var reg 16 h l_ir[15:0] $end
$var reg 17 i l_cs[16:0] $end
$scope module cg $end
$var reg 1 j i_clk $end
$var reg 1 k i_inc $end
$var reg 1 l i_rst $end
$var reg 8 m q_cycle[7:0] $end
$var reg 8 n l_cycle[7:0] $end
$upscope $end
$scope module itd $end
$var reg 4 o i_opc[3:0] $end
$var reg 16 p q_type[15:0] $end
$upscope $end
$scope module ir $end
$var reg 1 q i_clk $end
$var reg 16 r i_d[15:0] $end
$var reg 1 s i_w $end
$var reg 16 t q_d[15:0] $end
$var reg 16 u l_content[15:0] $end
$upscope $end
$upscope $end
$upscope $end
$scope module ram_mod $end
$var reg 1 v i_clk $end
$var reg 1 w i_rw $end
$var reg 7 x i_adr[6:0] $end
$var reg 8 y i_dat[7:0] $end
$var reg 8 z q_dat[7:0] $end
$comment ram is not handled $end
$upscope $end
$scope module rom_mod $end
$var reg 1 { i_clk $end
$var reg 6 | i_adr[5:0] $end
$var reg 8 } q_dat[7:0] $end
$comment rom is not handled $end
$upscope $end
$scope module tty_mod $end
$var reg 1 !" i_clk $end
$var reg 1 "" i_w $end
$var reg 8 #" i_dat[7:0] $end
$upscope $end
$enddefinitions $end
#0
0!
b00000000 "
b00000000 #
b00000000 $
0%
b00000000 &
b01000000 '
0(
1)
1*
1+
1,
b00000000 -
b00000000 .
b00000000 /
00
b00000000 1
bZZZZZZZZ 2
03
b00000000 4
b00000000 5
b00000000 6
b00000000 7
b0000000000000000 8
bZZZZZZZZ 9
b00000000 :
b11000000 ;
b00000000000000000 <
0=
0>
0?
0@
0A
1B
bZZZZZZZZ C
0D
b00000000 E
b00000000 F
1G
bZZZZZZZZ H
0I
b00000000 J
b00000000 K
1L
b00000000 M
0N
b00000000 O
b00000000 P
1Q
0R
0S
b0000 T
b00000000 U
bZZZZZZZZ V
b00000000 W
1X
b00000000 Y
b00000000 Z
0[
b00000000 \
b00000000 ]
1^
1_
b0000000000000000 `
b00000000000000000 a
b00000000 b
1c
1d
b00000001 e
b0000000000000001 f
0g
b0000000000000000 h
b00001011000000000 i
1j
1k
1l
b00000001 m
b00000001 n
b0000 o
b0000000000000001 p
1q
b0000000000000000 r
0s
b0000000000000000 t
b0000000000000000 u
1v
0w
b0000000 x
b00000000 y
b00000000 z
1{
b000000 |
b01000000 }
1!"
0""
b00000000 #"
#10000000
0)
0+
0B
0G
0L
0Q
0X
0^
0j
0q
0v
0{
0!"
#20000000
b11000000 "
b01000000 $
1)
0*
1+
0,
b01000000 -
b11000000 .
b00001011000000000 <
1B
1G
1L
1Q
1X
1^
0_
b00001011000000000 a
0d
0g
1j
0l
1q
0s
1v
b1000000 x
1{
1!"
#30000000
0)
0+
0B
0G
0L
0Q
0X
0^
0j
0q
0v
0{
0!"
#40000000
b11000001 "
b10000000 $
b10000000 '
1)
1+
b10000000 -
b11000001 .
b0100000000000000 8
b11000001 ;
b00000111000000000 <
1B
1G
1L
1Q
1X
1^
b0100000000000000 `
b00000111000000000 a
b00000010 e
b00000111000000000 i
1j
b00000010 m
b00000010 n
1q
b0100000000000000 r
1v
b1000001 x
1{
b000001 |
b10000000 }
1!"
#50000000
0)
0+
0B
0G
0L
0Q
0X
0^
0j
0q
0v
0{
0!"
#60000000
b00000000 "
b00000000 $
b01000000 '
1)
1+
b00000000 -
b00000000 .
b0100000010000000 8
b11000010 ;
b00000000000000000 <
1B
1G
1L
1Q
1X
1^
b0100000010000000 `
b00000000000000000 a
1d
b00000100 e
1g
b00000000000000000 i
1j
1l
b00000100 m
b00000100 n
1q
b0100000010000000 r
1s
1v
b0000000 x
1{
b000000 |
b01000000 }
1!"
#70000000
0)
0+
0B
0G
0L
0Q
0X
0^
0j
0q
0v
0{
0!"
#80000000
b11000010 "
b01000001 $
b01000001 '
1)
1+
b01000001 -
b11000010 .
b01000001 1
b10000000 7
b10000000 9
b00001011001000100 <
1=
1B
b10000000 C
1D
1G
b10000000 H
1L
b01000001 M
1Q
1X
1^
b00001011001000100 a
b10000000 b
0d
b00000001 e
b0000000000010000 f
0g
b0100000010000000 h
b00001011001000100 i
1j
0l
b00000001 m
b00000001 n
b0100 o
b0000000000010000 p
1q
0s
b0100000010000000 t
b0100000010000000 u
1v
b1000010 x
1{
b000010 |
b01000001 }
1!"
#90000000
0)
0+
0B
0G
0L
0Q
0X
0^
0j
0q
0v
0{
0!"
#100000000
b11000011 "
b01001000 $
b01001000 '
1)
1+
b01001000 -
b11000011 .
b10000000 1
b10000000 4
b10000000 6
b0100000110000000 8
bZZZZZZZZ 9
b11000011 ;
b00000111000010000 <
0=
1?
1B
bZZZZZZZZ C
0D
b10000000 E
b10000000 F
1G
bZZZZZZZZ H
1L
b10000000 M
1N
1Q
1X
b10000000 Y
b10000000 \
b10000000 ]
1^
b0100000110000000 `
b00000111000010000 a
b00000010 e
b00000111000010000 i
1j
b00000010 m
b00000010 n
1q
b0100000110000000 r
1v
b1000011 x
1{
b000011 |
b01001000 }
1!"
#110000000
0)
0+
0B
0G
0L
0Q
0X
0^
0j
0q
0v
0{
0!"
#120000000
b10000000 "
b00000000 $
b01000000 '
1)
1+
b00000000 -
b10000000 .
b0100000101001000 8
b10000000 :
b11000100 ;
b00000000000000010 <
0?
1A
1B
1G
1L
0N
b10000000 O
b10000000 P
1Q
1R
b10000000 U
1X
1^
b0100000101001000 `
b00000000000000010 a
1d
b00000100 e
1g
b00000000000000010 i
1j
1l
b00000100 m
b00000100 n
1q
b0100000101001000 r
1s
1v
b0000000 x
1{
b000000 |
b01000000 }
1!"
#130000000
0)
0+
0B
0G
0L
0Q
0X
0^
0j
0q
0v
0{
0!"
#140000000
b11000100 "
b00110000 $
b00110000 '
1)
1+
b00110000 -
b11000100 .
b00110000 1
b01001000 7
b01001000 9
b00001011001000100 <
1=
0A
1B
b01001000 C
1D
1G
b01001000 H
1L
b00110000 M
1Q
0R
b10000000 W
1X
1^
b00001011001000100 a
b01001000 b
0d
b00000001 e
0g
b0100000101001000 h
b00001011001000100 i
1j
0l
b00000001 m
b00000001 n
1q
0s
b0100000101001000 t
b0100000101001000 u
1v
b1000100 x
1{
b000100 |
b00110000 }
1!"
#150000000
0)
0+
0B
0G
0L
0Q
0X
0^
0j
0q
0v
0{
0!"
#160000000
b11000101 "
b00010000 $
b00010000 '
1)
1+
b00010000 -
b11000101 .
b01001000 1
b01001000 4
b01001000 6
b0011000001001000 8
bZZZZZZZZ 9
b11000101 ;
b00000111000010000 <
0=
1?
1B
bZZZZZZZZ C
0D
b01001000 E
b01001000 F
1G
bZZZZZZZZ H
1L
b01001000 M
1N
1Q
1X
b01001000 Y
b01001000 \
b01001000 ]
1^
b0011000001001000 `
b00000111000010000 a
b00000010 e
b00000111000010000 i
1j
b00000010 m
b00000010 n
1q
b0011000001001000 r
1v
b1000101 x
1{
b000101 |
b00010000 }
1!"
#170000000
0)
0+
0B
0G
0L
0Q
0X
0^
0j
0q
0v
0{
0!"
#180000000
b01001000 "
b00000000 $
b00110000 '
1)
1+
b00000000 -
b01001000 .
b0011000000010000 8
b01001000 :
b11000110 ;
b00010000000000010 <
0?
1A
1B
1G
1L
0N
b01001000 O
b01001000 P
1Q
1R
b0001 T
b01001000 U
b00000000 W
1X
1^
b0011000000010000 `
b00010000000000010 a
1d
b00000100 e
1g
b00010000000000010 i
1j
1l
b00000100 m
b00000100 n
1q
b0011000000010000 r
1s
1v
b1001000 x
1{
b001000 |
b00110000 }
1!"
#190000000
0)
0+
0B
0G
0L
0Q
0X
0^
0j
0q
0v
0{
0!"
#200000000
b11000110 "
b01000001 $
b01000001 '
1)
1+
b01000001 -
b11000110 .
b01001000 1
b10000000 2
b00010000 7
b10000000 9
b00001011000000101 <
1=
1@
0A
1B
b10000000 C
1D
1G
b10000000 H
1L
b01001000 M
1Q
0R
1S
b0000 T
b10000000 V
b10000000 W
1X
1^
b00001011000000101 a
b00010000 b
0d
b00000001 e
b0000000000001000 f
0g
b0011000000010000 h
b00001011000000101 i
1j
0l
b00000001 m
b00000001 n
b0011 o
b0000000000001000 p
1q
0s
b0011000000010000 t
b0011000000010000 u
1v
b1000110 x
1{
b000110 |
b01000001 }
1!"
#210000000
0)
0+
0B
0G
0L
0Q
0X
0^
0j
0q
0v
0{
0!"
#220000000
b11000111 "
b01000101 $
b01000101 '
1)
1+
b01000101 -
b11000111 .
b10000000 1
b01001000 2
b10000000 4
b10000000 6
b0100000100010000 8
b01001000 9
b11000111 ;
b00010111000001001 <
0=
1>
1B
b01001000 C
0D
b10000000 E
b10000000 F
1G
b01001000 H
1I
1L
b10000000 M
1Q
b0001 T
b01001000 V
b01001000 W
1X
b10000000 Y
b10000000 \
b10000000 ]
1^
b0100000100010000 `
b00010111000001001 a
b00000010 e
b00010111000001001 i
1j
b00000010 m
b00000010 n
1q
b0100000100010000 r
1v
b1000111 x
1{
b000111 |
b01000101 }
1!"
#230000000
0)
0+
0B
0G
0L
0Q
0X
0^
0j
0q
0v
0{
0!"
#240000000
1!
b10000000 "
b01001000 #
b00000000 $
b01000000 '
1(
1)
1+
b00000000 -
b10000000 .
b01001000 /
10
bZZZZZZZZ 2
b01001000 5
b0100000101000101 8
bZZZZZZZZ 9
b11001000 ;
b00000000100000000 <
0>
0@
1B
bZZZZZZZZ C
1G
bZZZZZZZZ H
0I
b01001000 J
b01001000 K
1L
1Q
0S
b0000 T
bZZZZZZZZ V
b10000000 W
1X
b01001000 Z
1^
b0100000101000101 `
b00000000100000000 a
1d
b00000100 e
1g
b00000000100000000 i
1j
1l
b00000100 m
b00000100 n
1q
b0100000101000101 r
1s
1v
b0000000 x
b01001000 y
1{
b000000 |
b01000000 }
1!"
1""
b01001000 #"
#250000000
0)
0+
0B
0G
0L
0Q
0X
0^
0j
0q
0v
0{
0!"
#260000000
0!
b11001000 "
b00110000 $
b00110000 '
0(
1)
1+
b00110000 -
b11001000 .
00
b00110000 1
bZZZZZZZZ 2
b01000101 7
b01000101 9
b00001011001000100 <
1=
0@
1B
b01000101 C
1D
1G
b01000101 H
1L
b00110000 M
1Q
0S
b0000 T
bZZZZZZZZ V
b10000000 W
1X
1^
b00001011001000100 a
b01000101 b
0d
b00000001 e
b0000000000010000 f
0g
b0100000101000101 h
b00001011001000100 i
1j
0l
b00000001 m
b00000001 n
b0100 o
b0000000000010000 p
1q
0s
b0100000101000101 t
b0100000101000101 u
1v
b1001000 x
1{
b001000 |
b00110000 }
1!"
0""
#270000000
0)
0+
0B
0G
0L
0Q
0X
0^
0j
0q
0v
0{
0!"
#280000000
b11001001 "
b00010000 $
b00010000 '
1)
1+
b00010000 -
b11001001 .
b01000101 1
b01000101 4
b01000101 6
b0011000001000101 8
bZZZZZZZZ 9
b11001001 ;
b00000111000010000 <
0=
1?
1B
bZZZZZZZZ C
0D
b01000101 E
b01000101 F
1G
bZZZZZZZZ H
1L
b01000101 M
1N
1Q
1X
b01000101 Y
b01000101 \
b01000101 ]
1^
b0011000001000101 `
b00000111000010000 a
b00000010 e
b00000111000010000 i
1j
b00000010 m
b00000010 n
1q
b0011000001000101 r
1v
b1001001 x
1{
b001001 |
b00010000 }
1!"
#290000000
0)
0+
0B
0G
0L
0Q
0X
0^
0j
0q
0v
0{
0!"
#300000000
b01000101 "
b00000000 $
b00010000 '
1)
1+
b00000000 -
b01000101 .
b0011000000010000 8
b01000101 :
b11001010 ;
b00010000000000010 <
0?
1A
1B
1G
1L
0N
b01000101 O
b01000101 P
1Q
1R
b0001 T
b01000101 U
b01001000 W
1X
1^
b0011000000010000 `
b00010000000000010 a
1d
b00000100 e
1g
b00010000000000010 i
1j
1l
b00000100 m
b00000100 n
1q
b0011000000010000 r
1s
1v
b1000101 x
1{
b000101 |
b00010000 }
1!"
#310000000
0)
0+
0B
0G
0L
0Q
0X
0^
0j
0q
0v
0{
0!"
#320000000
b11001010 "
b01000001 $
b01000001 '
1)
1+
b01000001 -
b11001010 .
b01000101 1
b10000000 2
b00010000 7
b10000000 9
b00001011000000101 <
1=
1@
0A
1B
b10000000 C
1D
1G
b10000000 H
1L
b01000101 M
1Q
0R
1S
b0000 T
b10000000 V
b10000000 W
1X
1^
b00001011000000101 a
b00010000 b
0d
b00000001 e
b0000000000001000 f
0g
b0011000000010000 h
b00001011000000101 i
1j
0l
b00000001 m
b00000001 n
b0011 o
b0000000000001000 p
1q
0s
b0011000000010000 t
b0011000000010000 u
1v
b1001010 x
1{
b001010 |
b01000001 }
1!"
#330000000
0)
0+
0B
0G
0L
0Q
0X
0^
0j
0q
0v
0{
0!"
#340000000
b11001011 "
b01001100 $
b01001100 '
1)
1+
b01001100 -
b11001011 .
b10000000 1
b01000101 2
b10000000 4
b10000000 6
b0100000100010000 8
b01000101 9
b11001011 ;
b00010111000001001 <
0=
1>
1B
b01000101 C
0D
b10000000 E
b10000000 F
1G
b01000101 H
1I
1L
b10000000 M
1Q
b0001 T
b01000101 V
b01000101 W
1X
b10000000 Y
b10000000 \
b10000000 ]
1^
b0100000100010000 `
b00010111000001001 a
b00000010 e
b00010111000001001 i
1j
b00000010 m
b00000010 n
1q
b0100000100010000 r
1v
b1001011 x
1{
b001011 |
b01001100 }
1!"
#350000000
0)
0+
0B
0G
0L
0Q
0X
0^
0j
0q
0v
0{
0!"
#360000000
1!
b10000000 "
b01000101 #
b00000000 $
b01000000 '
1(
1)
1+
b00000000 -
b10000000 .
b01000101 /
10
bZZZZZZZZ 2
b01000101 5
b0100000101001100 8
bZZZZZZZZ 9
b11001100 ;
b00000000100000000 <
0>
0@
1B
bZZZZZZZZ C
1G
bZZZZZZZZ H
0I
b01000101 J
b01000101 K
1L
1Q
0S
b0000 T
bZZZZZZZZ V
b10000000 W
1X
b01000101 Z
1^
b0100000101001100 `
b00000000100000000 a
1d
b00000100 e
1g
b00000000100000000 i
1j
1l
b00000100 m
b00000100 n
1q
b0100000101001100 r
1s
1v
b0000000 x
b01000101 y
1{
b000000 |
b01000000 }
1!"
1""
b01000101 #"
#370000000
0)
0+
0B
0G
0L
0Q
0X
0^
0j
0q
0v
0{
0!"
#380000000
0!
b11001100 "
b00110000 $
b00110000 '
0(
1)
1+
b00110000 -
b11001100 .
00
b00110000 1
bZZZZZZZZ 2
b01001100 7
b01001100 9
b00001011001000100 <
1=
0@
1B
b01001100 C
1D
1G
b01001100 H
1L
b00110000 M
1Q
0S
b0000 T
bZZZZZZZZ V
b10000000 W
1X
1^
b00001011001000100 a
b01001100 b
0d
b00000001 e
b0000000000010000 f
0g
b0100000101001100 h
b00001011001000100 i
1j
0l
b00000001 m
b00000001 n
b0100 o
b0000000000010000 p
1q
0s
b0100000101001100 t
b0100000101001100 u
1v
b1001100 x
1{
b001100 |
b00110000 }
1!"
0""
#390000000
0)
0+
0B
0G
0L
0Q
0X
0^
0j
0q
0v
0{
0!"
#400000000
b11001101 "
b00010000 $
b00010000 '
1)
1+
b00010000 -
b11001101 .
b01001100 1
b01001100 4
b01001100 6
b0011000001001100 8
bZZZZZZZZ 9
b11001101 ;
b00000111000010000 <
0=
1?
1B
bZZZZZZZZ C
0D
b01001100 E
b01001100 F
1G
bZZZZZZZZ H
1L
b01001100 M
1N
1Q
1X
b01001100 Y
b01001100 \
b01001100 ]
1^
b0011000001001100 `
b00000111000010000 a
b00000010 e
b00000111000010000 i
1j
b00000010 m
b00000010 n
1q
b0011000001001100 r
1v
b1001101 x
1{
b001101 |
b00010000 }
1!"
#410000000
0)
0+
0B
0G
0L
0Q
0X
0^
0j
0q
0v
0{
0!"
#420000000
b01001100 "
b00000000 $
b00110000 '
1)
1+
b00000000 -
b01001100 .
b0011000000010000 8
b01001100 :
b11001110 ;
b00010000000000010 <
0?
1A
1B
1G
1L
0N
b01001100 O
b01001100 P
1Q
1R
b0001 T
b01001100 U
b01000101 W
1X
1^
b0011000000010000 `
b00010000000000010 a
1d
b00000100 e
1g
b00010000000000010 i
1j
1l
b00000100 m
b00000100 n
1q
b0011000000010000 r
1s
1v
b1001100 x
1{
b001100 |
b00110000 }
1!"
#430000000
0)
0+
0B
0G
0L
0Q
0X
0^
0j
0q
0v
0{
0!"
#440000000
b11001110 "
b00110000 $
1)
1+
b00110000 -
b11001110 .
b01001100 1
b10000000 2
b00010000 7
b10000000 9
b00001011000000101 <
1=
1@
0A
1B
b10000000 C
1D
1G
b10000000 H
1L
b01001100 M
1Q
0R
1S
b0000 T
b10000000 V
b10000000 W
1X
1^
b00001011000000101 a
b00010000 b
0d
b00000001 e
b0000000000001000 f
0g
b0011000000010000 h
b00001011000000101 i
1j
0l
b00000001 m
b00000001 n
b0011 o
b0000000000001000 p
1q
0s
b0011000000010000 t
b0011000000010000 u
1v
b1001110 x
1{
b001110 |
1!"
#450000000
0)
0+
0B
0G
0L
0Q
0X
0^
0j
0q
0v
0{
0!"
#460000000
b11001111 "
b00010000 $
b00010000 '
1)
1+
b00010000 -
b11001111 .
b10000000 1
b01001100 2
b10000000 4
b10000000 6
b01001100 9
b11001111 ;
b00010111000001001 <
0=
1>
1B
b01001100 C
0D
b10000000 E
b10000000 F
1G
b01001100 H
1I
1L
b10000000 M
1Q
b0001 T
b01001100 V
b01001100 W
1X
b10000000 Y
b10000000 \
b10000000 ]
1^
b00010111000001001 a
b00000010 e
b00010111000001001 i
1j
b00000010 m
b00000010 n
1q
1v
b1001111 x
1{
b001111 |
b00010000 }
1!"
#470000000
0)
0+
0B
0G
0L
0Q
0X
0^
0j
0q
0v
0{
0!"
#480000000
1!
b10000000 "
b01001100 #
b00000000 $
b01000000 '
1(
1)
1+
b00000000 -
b10000000 .
b01001100 /
10
bZZZZZZZZ 2
b01001100 5
bZZZZZZZZ 9
b11010000 ;
b00000000100000000 <
0>
0@
1B
bZZZZZZZZ C
1G
bZZZZZZZZ H
0I
b01001100 J
b01001100 K
1L
1Q
0S
b0000 T
bZZZZZZZZ V
b10000000 W
1X
b01001100 Z
1^
b00000000100000000 a
1d
b00000100 e
1g
b00000000100000000 i
1j
1l
b00000100 m
b00000100 n
1q
1s
1v
b0000000 x
b01001100 y
1{
b000000 |
b01000000 }
1!"
1""
b01001100 #"
#490000000
0)
0+
0B
0G
0L
0Q
0X
0^
0j
0q
0v
0{
0!"
#500000000
0!
b11010000 "
b01000001 $
b01000001 '
0(
1)
1+
b01000001 -
b11010000 .
00
b10000000 2
b10000000 9
b00001011000000101 <
1=
1@
1B
b10000000 C
1D
1G
b10000000 H
1L
1Q
1S
b10000000 V
1X
1^
b00001011000000101 a
0d
b00000001 e
0g
b00001011000000101 i
1j
0l
b00000001 m
b00000001 n
1q
0s
1v
b1010000 x
1{
b010000 |
b01000001 }
1!"
0""
#510000000
0)
0+
0B
0G
0L
0Q
0X
0^
0j
0q
0v
0{
0!"
#520000000
b11010001 "
b01001111 $
b01001111 '
1)
1+
b01001111 -
b11010001 .
b01001100 2
b0100000100010000 8
b01001100 9
b11010001 ;
b00010111000001001 <
0=
1>
1B
b01001100 C
0D
1G
b01001100 H
1I
1L
1Q
b0001 T
b01001100 V
b01001100 W
1X
1^
b0100000100010000 `
b00010111000001001 a
b00000010 e
b00010111000001001 i
1j
b00000010 m
b00000010 n
1q
b0100000100010000 r
1v
b1010001 x
1{
b010001 |
b01001111 }
1!"
#530000000
0)
0+
0B
0G
0L
0Q
0X
0^
0j
0q
0v
0{
0!"
#540000000
1!
b10000000 "
b00000000 $
b01000000 '
1(
1)
1+
b00000000 -
b10000000 .
10
bZZZZZZZZ 2
b0100000101001111 8
bZZZZZZZZ 9
b11010010 ;
b00000000100000000 <
0>
0@
1B
bZZZZZZZZ C
1G
bZZZZZZZZ H
0I
1L
1Q
0S
b0000 T
bZZZZZZZZ V
b10000000 W
1X
1^
b0100000101001111 `
b00000000100000000 a
1d
b00000100 e
1g
b00000000100000000 i
1j
1l
b00000100 m
b00000100 n
1q
b0100000101001111 r
1s
1v
b0000000 x
1{
b000000 |
b01000000 }
1!"
1""
#550000000
0)
0+
0B
0G
0L
0Q
0X
0^
0j
0q
0v
0{
0!"
#560000000
0!
b11010010 "
b00110000 $
b00110000 '
0(
1)
1+
b00110000 -
b11010010 .
00
b00110000 1
bZZZZZZZZ 2
b01001111 7
b01001111 9
b00001011001000100 <
1=
0@
1B
b01001111 C
1D
1G
b01001111 H
1L
b00110000 M
1Q
0S
b0000 T
bZZZZZZZZ V
b10000000 W
1X
1^
b00001011001000100 a
b01001111 b
0d
b00000001 e
b0000000000010000 f
0g
b0100000101001111 h
b00001011001000100 i
1j
0l
b00000001 m
b00000001 n
b0100 o
b0000000000010000 p
1q
0s
b0100000101001111 t
b0100000101001111 u
1v
b1010010 x
1{
b010010 |
b00110000 }
1!"
0""
#570000000
0)
0+
0B
0G
0L
0Q
0X
0^
0j
0q
0v
0{
0!"
#580000000
b11010011 "
b00010000 $
b00010000 '
1)
1+
b00010000 -
b11010011 .
b01001111 1
b01001111 4
b01001111 6
b0011000001001111 8
bZZZZZZZZ 9
b11010011 ;
b00000111000010000 <
0=
1?
1B
bZZZZZZZZ C
0D
b01001111 E
b01001111 F
1G
bZZZZZZZZ H
1L
b01001111 M
1N
1Q
1X
b01001111 Y
b01001111 \
b01001111 ]
1^
b0011000001001111 `
b00000111000010000 a
b00000010 e
b00000111000010000 i
1j
b00000010 m
b00000010 n
1q
b0011000001001111 r
1v
b1010011 x
1{
b010011 |
b00010000 }
1!"
#590000000
0)
0+
0B
0G
0L
0Q
0X
0^
0j
0q
0v
0{
0!"
#600000000
b01001111 "
b00000000 $
b00010000 '
1)
1+
b00000000 -
b01001111 .
b0011000000010000 8
b01001111 :
b11010100 ;
b00010000000000010 <
0?
1A
1B
1G
1L
0N
b01001111 O
b01001111 P
1Q
1R
b0001 T
b01001111 U
b01001100 W
1X
1^
b0011000000010000 `
b00010000000000010 a
1d
b00000100 e
1g
b00010000000000010 i
1j
1l
b00000100 m
b00000100 n
1q
b0011000000010000 r
1s
1v
b1001111 x
1{
b001111 |
b00010000 }
1!"
#610000000
0)
0+
0B
0G
0L
0Q
0X
0^
0j
0q
0v
0{
0!"
#620000000
b11010100 "
b01000001 $
b01000001 '
1)
1+
b01000001 -
b11010100 .
b01001111 1
b10000000 2
b00010000 7
b10000000 9
b00001011000000101 <
1=
1@
0A
1B
b10000000 C
1D
1G
b10000000 H
1L
b01001111 M
1Q
0R
1S
b0000 T
b10000000 V
b10000000 W
1X
1^
b00001011000000101 a
b00010000 b
0d
b00000001 e
b0000000000001000 f
0g
b0011000000010000 h
b00001011000000101 i
1j
0l
b00000001 m
b00000001 n
b0011 o
b0000000000001000 p
1q
0s
b0011000000010000 t
b0011000000010000 u
1v
b1010100 x
1{
b010100 |
b01000001 }
1!"
#630000000
0)
0+
0B
0G
0L
0Q
0X
0^
0j
0q
0v
0{
0!"
#640000000
b11010101 "
b00101100 $
b00101100 '
1)
1+
b00101100 -
b11010101 .
b10000000 1
b01001111 2
b10000000 4
b10000000 6
b0100000100010000 8
b01001111 9
b11010101 ;
b00010111000001001 <
0=
1>
1B
b01001111 C
0D
b10000000 E
b10000000 F
1G
b01001111 H
1I
1L
b10000000 M
1Q
b0001 T
b01001111 V
b01001111 W
1X
b10000000 Y
b10000000 \
b10000000 ]
1^
b0100000100010000 `
b00010111000001001 a
b00000010 e
b00010111000001001 i
1j
b00000010 m
b00000010 n
1q
b0100000100010000 r
1v
b1010101 x
1{
b010101 |
b00101100 }
1!"
#650000000
0)
0+
0B
0G
0L
0Q
0X
0^
0j
0q
0v
0{
0!"
#660000000
1!
b10000000 "
b01001111 #
b00000000 $
b01000000 '
1(
1)
1+
b00000000 -
b10000000 .
b01001111 /
10
bZZZZZZZZ 2
b01001111 5
b0100000100101100 8
bZZZZZZZZ 9
b11010110 ;
b00000000100000000 <
0>
0@
1B
bZZZZZZZZ C
1G
bZZZZZZZZ H
0I
b01001111 J
b01001111 K
1L
1Q
0S
b0000 T
bZZZZZZZZ V
b10000000 W
1X
b01001111 Z
1^
b0100000100101100 `
b00000000100000000 a
1d
b00000100 e
1g
b00000000100000000 i
1j
1l
b00000100 m
b00000100 n
1q
b0100000100101100 r
1s
1v
b0000000 x
b01001111 y
1{
b000000 |
b01000000 }
1!"
1""
b01001111 #"
#670000000
0)
0+
0B
0G
0L
0Q
0X
0^
0j
0q
0v
0{
0!"
#680000000
0!
b11010110 "
b00110000 $
b00110000 '
0(
1)
1+
b00110000 -
b11010110 .
00
b00110000 1
bZZZZZZZZ 2
b00101100 7
b00101100 9
b00001011001000100 <
1=
0@
1B
b00101100 C
1D
1G
b00101100 H
1L
b00110000 M
1Q
0S
b0000 T
bZZZZZZZZ V
b10000000 W
1X
1^
b00001011001000100 a
b00101100 b
0d
b00000001 e
b0000000000010000 f
0g
b0100000100101100 h
b00001011001000100 i
1j
0l
b00000001 m
b00000001 n
b0100 o
b0000000000010000 p
1q
0s
b0100000100101100 t
b0100000100101100 u
1v
b1010110 x
1{
b010110 |
b00110000 }
1!"
0""
#690000000
0)
0+
0B
0G
0L
0Q
0X
0^
0j
0q
0v
0{
0!"
#700000000
b11010111 "
b00010000 $
b00010000 '
1)
1+
b00010000 -
b11010111 .
b00101100 1
b00101100 4
b00101100 6
b0011000000101100 8
bZZZZZZZZ 9
b11010111 ;
b00000111000010000 <
0=
1?
1B
bZZZZZZZZ C
0D
b00101100 E
b00101100 F
1G
bZZZZZZZZ H
1L
b00101100 M
1N
1Q
1X
b00101100 Y
b00101100 \
b00101100 ]
1^
b0011000000101100 `
b00000111000010000 a
b00000010 e
b00000111000010000 i
1j
b00000010 m
b00000010 n
1q
b0011000000101100 r
1v
b1010111 x
1{
b010111 |
b00010000 }
1!"
#710000000
0)
0+
0B
0G
0L
0Q
0X
0^
0j
0q
0v
0{
0!"
#720000000
b00101100 "
b00000000 $
b01000001 '
1)
1+
b00000000 -
b00101100 .
b0011000000010000 8
b00101100 :
b11011000 ;
b00010000000000010 <
0?
1A
1B
1G
1L
0N
b00101100 O
b00101100 P
1Q
1R
b0001 T
b00101100 U
b01001111 W
1X
1^
b0011000000010000 `
b00010000000000010 a
1d
b00000100 e
1g
b00010000000000010 i
1j
1l
b00000100 m
b00000100 n
1q
b0011000000010000 r
1s
1v
b0101100 x
1{
b101100 |
b01000001 }
1!"
#730000000
0)
0+
0B
0G
0L
0Q
0X
0^
0j
0q
0v
0{
0!"
#740000000
b11011000 "
b01000001 $
1)
1+
b01000001 -
b11011000 .
b00101100 1
b10000000 2
b00010000 7
b10000000 9
b00001011000000101 <
1=
1@
0A
1B
b10000000 C
1D
1G
b10000000 H
1L
b00101100 M
1Q
0R
1S
b0000 T
b10000000 V
b10000000 W
1X
1^
b00001011000000101 a
b00010000 b
0d
b00000001 e
b0000000000001000 f
0g
b0011000000010000 h
b00001011000000101 i
1j
0l
b00000001 m
b00000001 n
b0011 o
b0000000000001000 p
1q
0s
b0011000000010000 t
b0011000000010000 u
1v
b1011000 x
1{
b011000 |
1!"
